.................
----------------------------------------------------------------------
Ran 17 tests in 0.088s

OK
Name             Stmts   Miss Branch BrPart  Cover   Missing
------------------------------------------------------------
Collatz.py          44      0     14      0   100%
TestCollatz.py      68      0      0      0   100%
------------------------------------------------------------
TOTAL              112      0     14      0   100%
